…
> Looking only at the respondents who reported having watched the video, most of them changed their opinion on how sustainable they think they are in the positive direction, as evidenced by the higher number of points above the diagonal line. There was only one respondents who scored less after watching the video. Respondents who scored more after the watching the video are the ones who usually recycle. Respondents scores do not appear to be affected by age group. There may be other underlying confounding factors in which we did not capture in our data collection.

``` r
data_adj <- tidy_data %>%
  mutate(delta = Q6_1 - Q1_1) %>%
  mutate(Q1_adj = (Q1_1 %/% 2 + Q1_1 %% 2), Q6_adj = Q6_1 %/% 2 + Q6_1 %% 2, delta_adj = Q6_adj - Q1_adj)

(data_adj %>%
  filter(Q5 %in% 'Have watched') %>%
    arrange(delta))
```

    ## # A tibble: 38 x 10
    ##     Q1_1 Q2      Q3    Q4    Q5         Q6_1 delta Q1_adj Q6_adj delta_adj
    ##    <dbl> <fct>   <fct> <fct> <fct>     <dbl> <dbl>  <dbl>  <dbl>     <dbl>
    ##  1     9 Always  30-34 No    Have wat…     7    -2      5      4        -1
    ##  2     9 Always  30-34 No    Have wat…     9     0      5      5         0
    ##  3     3 Usually 20-24 No    Have wat…     3     0      2      2         0
    ##  4     9 Usually 25-29 No    Have wat…     9     0      5      5         0
    ##  5     9 Always  30-34 No    Have wat…     9     0      5      5         0
    ##  6     9 Usually 35-39 Yes   Have wat…     9     0      5      5         0
    ##  7     4 Usually 25-29 No    Have wat…     4     0      2      2         0
    ##  8     6 Usually 30-34 No    Have wat…     6     0      3      3         0
    ##  9    10 Always  20-24 Yes   Have wat…    10     0      5      5         0
    ## 10    10 Always  25-29 Yes   Have wat…    10     0      5      5         0
    ## # ... with 28 more rows
…
